Covid-19,Analysis
…
Both 90% of Males and Females are still in quarantine

No.Of Cases per day

ad<- d_subset %>%
  group_by(diagnosed_date)%>%
  summarise(n_distinct(id))
ad

## # A tibble: 42 x 2
##    diagnosed_date `n_distinct(id)`
##    <date>                    <int>
##  1 2020-01-30                    1
##  2 2020-03-02                    2
##  3 2020-03-03                    1
##  4 2020-03-04                    3
##  5 2020-03-05                    2
##  6 2020-03-07                    3
##  7 2020-03-08                    5
##  8 2020-03-09                    4
##  9 2020-03-10                    6
## 10 2020-03-11                    4
## #  with 32 more rows
…
